{
  "urn" : "local:benat_egidazu:im.data.marine.global:im-data-marine:dredge_spoil_dumping_polygons_4326",
  "version" : "0.0.1",
  "adapterType" : "wfs",
  "localPath" : "im.data.marine.global/resources/dredge_spoil_dumping_polygons_4326.v0.0.1",
  "geometry" : "s1(2614){bbox=[-36.0 43.0 15.0 90.0],proj=EPSG:4326}",
  "projectName" : "im.data.marine.global",
  "localName" : "dredge_spoil_dumping_polygons_4326",
  "type" : "OBJECT",
  "resourceTimestamp" : 1664799715129,
  "metadata" : {
    "im:keywords" : "Europe, Dredge Spoil Dumping Sites, Polygons",
    "dc:comment" : "This dataset shows the information of the european dredge spoil dumping sites (polygons). It has been obtained from EmodNET - Human Activities and it's EPSG code is 4326.",
    "im:notes" : "",
    "dc:title" : "Dredge Spoil Dumping Sites (Polygons)",
    "dc:url" : "https://www.emodnet-humanactivities.eu/",
    "dc:creator" : "EmodNET",
    "im:thematic-area" : "Infrastructure",
    "dc:originator" : "EmodNET",
    "im:geographic-area" : "Global",
    "dc:source" : ""
  },
  "parameters" : {
    "computeUnion" : "false",
    "serviceUrl" : "https://integratedmodelling.org/aux-geoserver/wfs",
    "wfsVersion" : "1.0.0",
    "computeHull" : "false",
    "wfsIdentifier" : "im-data-marine:dredge_spoil_dumping_polygons_4326",
    "sanitize" : "false"
  },
  "localPaths" : [ ],
  "history" : [ ],
  "notifications" : [ ],
  "attributes" : {
    "name" : "dist_coast",
    "type" : "TEXT",
    "key" : false,
    "optional" : true,
    "exampleValue" : null,
    "index" : 0
  },
  "spatialExtent" : {
    "east" : 43.0,
    "west" : -36.0,
    "north" : 90.0,
    "south" : 15.0,
    "gridResolution" : null,
    "gridUnit" : null
  },
  "dependencies" : null,
  "outputs" : null,
  "categorizables" : [ ],
  "codelists" : [ ],
  "availability" : null,
  "exportFormats" : { }
}