{
  "urn" : "local:benat_egidazu:im.data.marine.global:im-data-marine.seagrass_presence_europe_4326_100m",
  "version" : "0.0.1",
  "adapterType" : "wcs",
  "localPath" : "im.data.marine.global/resources/im-data-marine.seagrass_presence_europe_4326_100m.v0.0.1",
  "geometry" : "S2(87266,88888){bbox=[-39.11 39.42999999999999 10.0 90.0],proj=EPSG:4326}",
  "projectName" : "im.data.marine.global",
  "localName" : "im-data-marine.seagrass_presence_europe_4326_100m",
  "type" : "NUMBER",
  "resourceTimestamp" : 1663848552575,
  "metadata" : { },
  "parameters" : {
    "wcsIdentifier" : "im-data-marine__seagrass_presence_europe_4326_100m",
    "transform" : "",
    "serviceUrl" : "https://integratedmodelling.org/aux-geoserver/ows",
    "band" : "0",
    "nodata" : "0.0",
    "wcsVersion" : "2.0.1"
  },
  "localPaths" : [ ],
  "history" : [ ],
  "notifications" : [ ],
  "attributes" : [ ],
  "spatialExtent" : {
    "east" : 39.42999999999999,
    "west" : -39.11,
    "north" : 90.0,
    "south" : 10.0,
    "gridResolution" : null,
    "gridUnit" : null
  },
  "dependencies" : null,
  "outputs" : null,
  "categorizables" : [ ],
  "codelists" : [ ],
  "availability" : null,
  "exportFormats" : { }
}