{
  "urn" : "local:rubencc:im.data.marine.global:emodnet_hydrocarbons",
  "version" : "0.0.1",
  "adapterType" : "wfs",
  "localPath" : "im.data.marine.global/resources/emodnet_hydrocarbons",
  "geometry" : "s1(26435){bbox=[-13.4025087356567 34.9286689758301 33.1839790344238 80.682502746582],proj=EPSG:4326}",
  "projectName" : "im.data.marine.global",
  "localName" : "emodnet_hydrocarbons",
  "type" : "OBJECT",
  "resourceTimestamp" : 1639039148586,
  "metadata" : {
    "im:keywords" : "features,hydrocarbons",
    "dc:comment" : "The database on offshore hydrocarbon extraction boreholes in the EU was created in 2014 by Cogea for the European Marine Observation and Data Network (EMODnet). It is the result of the aggregation and harmonization of datasets provided by several sources from all across the EU (plus Norway). It is updated every year, and is available for viewing and download on EMODnet - Human Activities web portal (www.emodnet-humanactivities.eu). The database contains points representing offshore hydrocarbon boreholes drilled in the following countries: Croatia, Cyprus, Denmark, Faroe Islands, France, Germany, Greece (only for western coast), Ireland, Italy, Latvia, Malta, Montenegro, Netherlands, Norway, Poland, Portugal, Spain, and UK. Each point has the following attributes (where available): status (active, abandoned, suspended, other), country, code, name, year (spud date), purpose (exploration, exploitation, other), content (crude oil, natural gas, crude oil and natural gas, dry, other), operator, drilling company/facility, distance to coast (metres) and water depth (metres). The distance to coast (EEA coastline shapefile) has been calculated using the original data map projections, where available. In the other cases it was used the UTM WGS84 Zone projected ccoordinate system where data fall in. Compared with the previous version this new version has been not only updated but was also reviewed (dataset schema and attributes values) in order to make it more compliant with INSPIRE.",
    "im:notes" : "",
    "dc:title" : "Boreholes",
    "dc:url" : "",
    "dc:creator" : "",
    "im:thematic-area" : "Geology",
    "dc:originator" : "",
    "im:geographic-area" : "Global",
    "dc:source" : ""
  },
  "parameters" : {
    "serviceUrl" : "https://ows.emodnet-humanactivities.eu/wfs",
    "wfsVersion" : "1.0.0",
    "wfsIdentifier" : "emodnet:hydrocarbons"
  },
  "localPaths" : [ ],
  "history" : [ ],
  "notifications" : [ ],
  "attributes" : [ {
    "name" : "status",
    "type" : "TEXT",
    "key" : false,
    "optional" : true,
    "exampleValue" : null,
    "index" : 0
  }, {
    "name" : "country",
    "type" : "TEXT",
    "key" : false,
    "optional" : true,
    "exampleValue" : null,
    "index" : 0
  }, {
    "name" : "code",
    "type" : "TEXT",
    "key" : false,
    "optional" : true,
    "exampleValue" : null,
    "index" : 0
  }, {
    "name" : "name",
    "type" : "TEXT",
    "key" : false,
    "optional" : true,
    "exampleValue" : null,
    "index" : 0
  }, {
    "name" : "year",
    "type" : "TEXT",
    "key" : false,
    "optional" : true,
    "exampleValue" : null,
    "index" : 0
  }, {
    "name" : "purpose",
    "type" : "TEXT",
    "key" : false,
    "optional" : true,
    "exampleValue" : null,
    "index" : 0
  }, {
    "name" : "hydrocarbon",
    "type" : "TEXT",
    "key" : false,
    "optional" : true,
    "exampleValue" : null,
    "index" : 0
  }, {
    "name" : "operator",
    "type" : "TEXT",
    "key" : false,
    "optional" : true,
    "exampleValue" : null,
    "index" : 0
  }, {
    "name" : "company",
    "type" : "TEXT",
    "key" : false,
    "optional" : true,
    "exampleValue" : null,
    "index" : 0
  }, {
    "name" : "distance",
    "type" : "TEXT",
    "key" : false,
    "optional" : true,
    "exampleValue" : null,
    "index" : 0
  }, {
    "name" : "depth",
    "type" : "TEXT",
    "key" : false,
    "optional" : true,
    "exampleValue" : null,
    "index" : 0
  } ],
  "spatialExtent" : {
    "east" : 34.9286689758301,
    "west" : -13.4025087356567,
    "north" : 80.682502746582,
    "south" : 33.1839790344238,
    "gridResolution" : null,
    "gridUnit" : null
  },
  "dependencies" : null,
  "outputs" : null,
  "categorizables" : [ ],
  "codelists" : [ ],
  "availability" : null,
  "exportFormats" : { }
}