{
  "urn" : "local:rubencc:im.data.marine.global:emodnet_open_eov_macroalgae",
  "version" : "0.0.1",
  "adapterType" : "wfs",
  "localPath" : "im.data.marine.global/resources/emodnet_open_eov_macroalgae",
  "geometry" : "s1(47069){bbox=[3.234128334483E-4 6.328212653313E-4 -9.50018457758E-5 1.869169674745E-4],proj=EPSG:4326}",
  "projectName" : "im.data.marine.global",
  "localName" : "emodnet_open_eov_macroalgae",
  "type" : "OBJECT",
  "resourceTimestamp" : 1644578477178,
  "metadata" : {
    "im:keywords" : "features,habitat,eov_macroalgae,benthic,biotope,eunis,marine",
    "dc:comment" : "This layer shows the current known extent of macroalgal forests in European waters, collated by EMODnet Seabed Habitats. Kelp and fucoid brown algae are the dominant species that comprise macroalgal forests. The relevant habitats were extracted from the library of maps on the EMODnet Seabed Habitats portal and collated into one standardised shapefile.  This data product should be considered a work in progress and is not an official product.",
    "im:notes" : "",
    "dc:title" : "Macroalgal canopy cover (2019) in Europe",
    "dc:url" : "https://www.emodnet-humanactivities.eu/view-data.php",
    "dc:creator" : "",
    "im:thematic-area" : "Biology",
    "dc:originator" : "",
    "im:geographic-area" : "Global",
    "dc:source" : ""
  },
  "parameters" : {
    "serviceUrl" : "https://ows.emodnet-seabedhabitats.eu/geoserver/emodnet_open/wfs",
    "wfsVersion" : "1.0.0",
    "wfsIdentifier" : "emodnet_open:eov_macroalgae"
  },
  "localPaths" : [ ],
  "history" : [ ],
  "notifications" : [ ],
  "attributes" : [ {
    "name" : "objectid",
    "type" : "NUMBER",
    "key" : false,
    "optional" : true,
    "exampleValue" : null,
    "index" : 0
  }, {
    "name" : "map_id",
    "type" : "TEXT",
    "key" : false,
    "optional" : true,
    "exampleValue" : null,
    "index" : 0
  }, {
    "name" : "hab_origin",
    "type" : "TEXT",
    "key" : false,
    "optional" : true,
    "exampleValue" : null,
    "index" : 0
  }, {
    "name" : "eunis_code",
    "type" : "TEXT",
    "key" : false,
    "optional" : true,
    "exampleValue" : null,
    "index" : 0
  }, {
    "name" : "eunis_name",
    "type" : "TEXT",
    "key" : false,
    "optional" : true,
    "exampleValue" : null,
    "index" : 0
  }, {
    "name" : "anxi_code",
    "type" : "TEXT",
    "key" : false,
    "optional" : true,
    "exampleValue" : null,
    "index" : 0
  }, {
    "name" : "anxi_name",
    "type" : "TEXT",
    "key" : false,
    "optional" : true,
    "exampleValue" : null,
    "index" : 0
  }, {
    "name" : "ai_subtype",
    "type" : "TEXT",
    "key" : false,
    "optional" : true,
    "exampleValue" : null,
    "index" : 0
  }, {
    "name" : "ospar_hab",
    "type" : "TEXT",
    "key" : false,
    "optional" : true,
    "exampleValue" : null,
    "index" : 0
  }, {
    "name" : "determiner",
    "type" : "TEXT",
    "key" : false,
    "optional" : true,
    "exampleValue" : null,
    "index" : 0
  }, {
    "name" : "det_date",
    "type" : "VALUE",
    "key" : false,
    "optional" : true,
    "exampleValue" : null,
    "index" : 0
  }, {
    "name" : "source",
    "type" : "TEXT",
    "key" : false,
    "optional" : true,
    "exampleValue" : null,
    "index" : 0
  }, {
    "name" : "shape_leng",
    "type" : "NUMBER",
    "key" : false,
    "optional" : true,
    "exampleValue" : null,
    "index" : 0
  }, {
    "name" : "shape_area",
    "type" : "NUMBER",
    "key" : false,
    "optional" : true,
    "exampleValue" : null,
    "index" : 0
  } ],
  "spatialExtent" : {
    "east" : 6.328212653313E-4,
    "west" : 3.234128334483E-4,
    "north" : 1.869169674745E-4,
    "south" : -9.50018457758E-5,
    "gridResolution" : null,
    "gridUnit" : null
  },
  "dependencies" : null,
  "outputs" : null,
  "categorizables" : [ ],
  "codelists" : [ ],
  "availability" : null,
  "exportFormats" : { }
}