{
  "urn" : "local:ferdinando.villa:im.data.marine.global:bio-oracle.phosphate",
  "version" : "0.0.1",
  "adapterType" : "wcs",
  "localPath" : "im.data.marine.global/resources/bio-oracle.phosphate",
  "geometry" : "S2(4319,2159){bbox=[-180.0 179.9999856 -90.0 89.9999928],proj=EPSG:4326}",
  "projectName" : "im.data.marine.global",
  "localName" : "bio-oracle.phosphate",
  "type" : "NUMBER",
  "resourceTimestamp" : 1633517633504,
  "metadata" : {
    "im:keywords" : "Phosphate, BIO-Oracle",
    "dc:comment" : "Mean value of phosphate in mol per cubic meter.",
    "im:notes" : "",
    "dc:title" : "Mean phosphate",
    "dc:url" : "https://www.bio-oracle.org/downloads-to-email.php",
    "dc:creator" : "Tyberghein, L.\r\nVerbruggen, H.\r\nPauly, K.\r\nTroupin, C.\r\nMineur, F.\r\nDe Clerck,m O.",
    "im:thematic-area" : "Chemistry",
    "dc:originator" : "",
    "im:geographic-area" : "Global",
    "dc:source" : "Tyberghein L, Verbruggen H, Pauly K, Troupin C, Mineur F, De Clerck O (2012) Bio-ORACLE: A global environmental dataset for marine species distribution modelling. Global Ecology and Biogeography, 21, 272–281.\r\nAssis, J., Tyberghein, L., Bosh, S., Verbruggen, H., Serrão, E. A., & De Clerck, O. (2017). Bio-ORACLE v2.0: Extending marine data layers for bioclimatic modelling. Global Ecology and Biogeography."
  },
  "parameters" : {
    "wcsIdentifier" : "Bio-Oracle__phosphate",
    "transform" : "",
    "serviceUrl" : "https://geo.vliz.be/geoserver/ows",
    "nodata" : "-9999.0",
    "wcsVersion" : "2.0.1"
  },
  "localPaths" : [ ],
  "history" : [ ],
  "notifications" : [ ],
  "attributes" : [ ],
  "spatialExtent" : {
    "east" : 179.9999856,
    "west" : -180.0,
    "north" : 89.9999928,
    "south" : -90.0,
    "gridResolution" : null,
    "gridUnit" : null
  },
  "dependencies" : null,
  "outputs" : null,
  "categorizables" : [ ],
  "codelists" : [ ],
  "availability" : null,
  "exportFormats" : { }
}