{
  "urn" : "local:ferdinando.villa:im.data.marine.global:world_world_plates",
  "version" : "0.0.1",
  "adapterType" : "wfs",
  "localPath" : "im.data.marine.global/resources/world_world_plates",
  "geometry" : "s1(12){bbox=[-180.0 180.0 -90.0 90.0],proj=EPSG:4326}",
  "projectName" : "im.data.marine.global",
  "localName" : "world_world_plates",
  "type" : "OBJECT",
  "resourceTimestamp" : 1633452218855,
  "metadata" : {
    "im:keywords" : "features,world_plates",
    "dc:comment" : "The dataset is representing the different lithospheric plates on the earth's surface.",
    "im:notes" : "",
    "dc:title" : "World lithospheric plates",
    "dc:url" : "",
    "dc:creator" : "",
    "im:thematic-area" : "Earth",
    "dc:originator" : "",
    "im:geographic-area" : "Global",
    "dc:source" : ""
  },
  "parameters" : {
    "serviceUrl" : "https://geo.vliz.be/geoserver/ows",
    "wfsVersion" : "1.0.0",
    "wfsIdentifier" : "World:world_plates"
  },
  "localPaths" : [ ],
  "history" : [ ],
  "notifications" : [ ],
  "attributes" : [ {
    "name" : "plates_id",
    "type" : "NUMBER",
    "key" : false,
    "optional" : true,
    "exampleValue" : null,
    "index" : 0
  }, {
    "name" : "plate",
    "type" : "TEXT",
    "key" : false,
    "optional" : true,
    "exampleValue" : null,
    "index" : 0
  } ],
  "spatialExtent" : {
    "east" : 180.0,
    "west" : -180.0,
    "north" : 90.0,
    "south" : -90.0,
    "gridResolution" : null,
    "gridUnit" : null
  },
  "dependencies" : null,
  "outputs" : null,
  "categorizables" : [ ],
  "codelists" : [ ],
  "availability" : null,
  "exportFormats" : { }
}